<?xml version="1.0" encoding="UTF-8" standalone="no"?>
<!-- Created with Inkscape (http://www.inkscape.org/) -->

<svg
   xmlns:dc="http://purl.org/dc/elements/1.1/"
   xmlns:cc="http://creativecommons.org/ns#"
   xmlns:rdf="http://www.w3.org/1999/02/22-rdf-syntax-ns#"
   xmlns:svg="http://www.w3.org/2000/svg"
   xmlns="http://www.w3.org/2000/svg"
   xmlns:xlink="http://www.w3.org/1999/xlink"
   xmlns:sodipodi="http://sodipodi.sourceforge.net/DTD/sodipodi-0.dtd"
   xmlns:inkscape="http://www.inkscape.org/namespaces/inkscape"
   width="12.7mm"
   height="4.6853514mm"
   viewBox="0 0 44.999999 16.601639"
   id="svg12779"
   version="1.1"
   inkscape:version="0.92.5 (0.92.5+68)"
   sodipodi:docname="TDS.svg">
  <defs
     id="defs12781" />
  <sodipodi:namedview
     id="base"
     pagecolor="#ffffff"
     bordercolor="#666666"
     borderopacity="1.0"
     inkscape:pageopacity="0.0"
     inkscape:pageshadow="2"
     inkscape:zoom="26.208333"
     inkscape:cx="24"
     inkscape:cy="8.8542077"
     inkscape:document-units="px"
     inkscape:current-layer="layer1"
     showgrid="false"
     fit-margin-top="0"
     fit-margin-left="0"
     fit-margin-right="0"
     fit-margin-bottom="0"
     inkscape:window-width="1920"
     inkscape:window-height="1031"
     inkscape:window-x="1050"
     inkscape:window-y="200"
     inkscape:window-maximized="1" />
  <metadata
     id="metadata12784">
    <rdf:RDF>
      <cc:Work
         rdf:about="">
        <dc:format>image/svg+xml</dc:format>
        <dc:type
           rdf:resource="http://purl.org/dc/dcmitype/StillImage" />
        <dc:title></dc:title>
      </cc:Work>
    </rdf:RDF>
  </metadata>
  <g
     inkscape:label="Ebene 1"
     inkscape:groupmode="layer"
     id="layer1"
     transform="translate(-320.35714,-252.63285)">
    <g
       transform="matrix(2.7391306,0,0,2.7391306,-739.75044,-1341.2225)"
       id="g4200">
      <g
         id="g4196"
         transform="translate(-1.1209787)">
        <circle
           r="3.0304577"
           cy="584.91412"
           cx="393.32819"
           id="path4190"
           style="opacity:1;fill:#000000;stroke:none;stroke-width:1;stroke-miterlimit:4;stroke-dasharray:none;stroke-dashoffset:0" />
        <use
           height="100%"
           width="100%"
           transform="translate(6.0609154)"
           id="use4192"
           xlink:href="#path4190"
           y="0"
           x="0" />
      </g>
      <path
         style="fill:none;fill-rule:evenodd;stroke:#000000;stroke-width:0.82142848px;stroke-linecap:butt;stroke-linejoin:miter;stroke-opacity:1"
         d="m 387.02338,584.91412 h 16.42857"
         id="path4194"
         inkscape:connector-curvature="0" />
    </g>
  </g>
</svg>
