<?xml version="1.0" encoding="UTF-8" standalone="no"?>
<!-- Created with Inkscape (http://www.inkscape.org/) -->

<svg
   xmlns:dc="http://purl.org/dc/elements/1.1/"
   xmlns:cc="http://creativecommons.org/ns#"
   xmlns:rdf="http://www.w3.org/1999/02/22-rdf-syntax-ns#"
   xmlns:svg="http://www.w3.org/2000/svg"
   xmlns="http://www.w3.org/2000/svg"
   xmlns:sodipodi="http://sodipodi.sourceforge.net/DTD/sodipodi-0.dtd"
   xmlns:inkscape="http://www.inkscape.org/namespaces/inkscape"
   width="11.081654mm"
   height="12.700109mm"
   viewBox="0 0 11.081654 12.700109"
   version="1.1"
   id="svg8"
   inkscape:version="0.92.5 (0.92.5+68)"
   sodipodi:docname="Traveller.svg">
  <defs
     id="defs2" />
  <sodipodi:namedview
     id="base"
     pagecolor="#ffffff"
     bordercolor="#666666"
     borderopacity="1.0"
     inkscape:pageopacity="0.0"
     inkscape:pageshadow="2"
     inkscape:zoom="17.49985"
     inkscape:cx="20.941708"
     inkscape:cy="24.000205"
     inkscape:document-units="mm"
     inkscape:current-layer="layer1"
     showgrid="false"
     fit-margin-top="0"
     fit-margin-left="0"
     fit-margin-right="0"
     fit-margin-bottom="0" />
  <metadata
     id="metadata5">
    <rdf:RDF>
      <cc:Work
         rdf:about="">
        <dc:format>image/svg+xml</dc:format>
        <dc:type
           rdf:resource="http://purl.org/dc/dcmitype/StillImage" />
        <dc:title></dc:title>
      </cc:Work>
    </rdf:RDF>
  </metadata>
  <g
     inkscape:label="Ebene 1"
     inkscape:groupmode="layer"
     id="layer1"
     transform="translate(-90.332026,-97.984092)">
    <path
       style="fill:#000000;stroke-width:0.02481679"
       d="m 91.489691,110.66059 c -0.289396,-0.0867 -0.455286,-0.41387 -0.353856,-0.69779 l 0.03231,-0.0904 -0.379917,-0.21426 c -0.398716,-0.22487 -0.456202,-0.27515 -0.456202,-0.39904 0,-0.0924 1.800012,-3.29261 1.903305,-3.38391 0.117006,-0.10342 0.192891,-0.0723 1.112892,0.456 l 0.100225,0.0576 0.341633,-0.60645 0.341634,-0.60644 -0.05013,-0.0704 c -0.178018,-0.25 -0.106425,-0.53785 0.329308,-1.32404 0.602311,-1.08675 1.755796,-2.49896 2.230031,-2.73023 0.651663,-0.3178 1.097895,-0.18883 1.984491,0.57356 0.876159,0.75341 1.568015,1.14394 2.199965,1.2418 0.88308,0.13674 0.72519,1.2065 -0.16139,1.09347 -0.719506,-0.0917 -1.303625,-0.2975 -1.795729,-0.63259 -0.111921,-0.0762 -0.206385,-0.13519 -0.20992,-0.13107 -0.0035,0.004 0.03259,0.44861 0.08028,0.98775 0.09763,1.10383 0.09573,1.15319 -0.05503,1.42954 l -0.08264,0.15147 0.137934,0.23319 c 0.679021,1.14794 1.825605,3.45289 1.919095,3.85791 0.12382,0.53642 -0.46044,0.9889 -0.980082,0.75904 -0.206081,-0.0912 -0.278223,-0.19695 -0.571304,-0.83779 -0.29524,-0.64556 -0.794724,-1.65957 -1.0499,-2.13141 -0.250203,-0.46266 -0.507346,-0.90582 -0.525595,-0.90582 -0.02192,0 -0.414957,0.72874 -0.970401,1.79922 -0.95977,1.84972 -1.018521,1.94731 -1.239875,2.05948 -0.474601,0.2405 -1.005311,-0.0868 -1.005513,-0.62011 l -7.4e-5,-0.19853 0.685983,-1.24084 c 1.583768,-2.8648 1.485658,-2.67468 1.41823,-2.74827 -0.167183,-0.18246 -0.187755,-0.28668 -0.292112,-1.47993 -0.047,-0.53746 -0.09024,-0.98198 -0.09607,-0.98782 -0.03685,-0.0369 -0.608409,0.87632 -0.802765,1.28256 -0.249748,0.52202 -0.266402,0.55158 -0.344204,0.61092 -0.04254,0.0324 -0.119876,0.0737 -0.171867,0.0917 -0.10698,0.037 -0.234273,0.24736 -1.377147,2.27537 -0.311523,0.5528 -0.722641,1.27784 -0.913596,1.6112 l -0.347191,0.60612 0.0454,0.0888 c 0.217566,0.42532 -0.176104,0.90667 -0.630201,0.77055 z m 0.287913,-0.3754 c 0.101491,-0.11994 0.0127,-0.31881 -0.142343,-0.31881 -0.128916,0 -0.202165,0.0924 -0.186915,0.23576 0.01611,0.15152 0.226438,0.20457 0.329258,0.0831 z m 5.3326,-9.4778 c -1.096578,-0.19473 -1.55074,-1.543169 -0.795951,-2.363236 0.876412,-0.952208 2.455481,-0.327711 2.455481,0.971104 0,0.868212 -0.805366,1.543802 -1.65953,1.392132 z"
       id="path4830"
       inkscape:connector-curvature="0" />
  </g>
</svg>
